…
``` r
month_df=
  tibble(
    month =  1:12,
    month_name=month.name
  )

precip_df = 
  bind_rows(precip_2018, precip_2017)


left_join(precip_df, month_df, by = "month")
```

    ## # A tibble: 24 x 4
    ##     year month total month_name
    ##    <dbl> <dbl> <dbl> <chr>     
    ##  1  2018     1  0.94 January   
    ##  2  2018     2  4.8  February  
    ##  3  2018     3  2.69 March     
    ##  4  2018     4  4.69 April     
    ##  5  2018     5  9.27 May       
    ##  6  2018     6  4.77 June      
    ##  7  2018     7 10.2  July      
    ##  8  2018     8  6.45 August    
    ##  9  2018     9 10.5  September 
    ## 10  2018    10  2.12 October   
    ## # ... with 14 more rows
…
unemploy_df = left_join(unemploy_df, month_abv_df, by = "month") %>% 
  select(-c("month_abv", "month")) %>% 
  janitor::clean_names()
```

## joining the datasets

``` r
combined_df = left_join(month_pol_df, snp_df, by = c("year", "month_name"))
list(unemploy_df)
```

    ## [[1]]
    ## # A tibble: 816 x 3
    ##    year  unemployment_pct month_name
    ##    <chr>            <dbl> <chr>     
    ##  1 1948               3.4 January   
    ##  2 1948               3.8 February  
    ##  3 1948               4   March     
    ##  4 1948               3.9 April     
    ##  5 1948               3.5 May       
    ##  6 1948               3.6 June      
    ##  7 1948               3.6 July      
    ##  8 1948               3.9 August    
    ##  9 1948               3.8 September 
    ## 10 1948               3.7 October   
    ## # ... with 806 more rows
…
